100
2.971433E+00 3.258145E+01 3.378568E-01 1.951197E-01
1.688477E+00 1.812190E+01 3.872508E-01 2.330924E-01
4.818812E+00 6.225348E+01 3.069744E-01 1.772684E-01
0.000000E+00 5.904256E-01 4.753795E-01 2.013200E-01
0.000000E+00 5.145631E-01 2.661753E-01 2.443134E-01
0.000000E+00 5.803264E-01 4.829226E-01 2.049783E-01
0.000000E+00 4.139265E-01 4.375695E-01 3.644550E-01
0.000000E+00 4.271845E-01 3.511196E-01 3.061281E-01
0.000000E+00 5.145631E-01 2.636479E-01 2.438423E-01
0.000000E+00 4.500000E-01 2.874366E-01 2.336941E-01
0.000000E+00 6.115445E-01 4.237172E-01 1.840822E-01
0.000000E+00 6.068643E-01 4.252586E-01 1.844223E-01
0.000000E+00 4.500000E-01 2.895985E-01 2.351610E-01
1.044009E+00 1.661430E+00 4.261943E-01 1.880479E-01
1.026583E+00 1.616802E+00 3.227402E-01 1.833013E-01
0.000000E+00 4.436893E-01 4.051861E-01 3.392588E-01
1.519113E-04 8.386200E-03 3.786733E-01 2.241526E-01
0.000000E+00 6.279070E-01 2.494318E-01 1.847450E-01
0.000000E+00 4.233010E-01 4.219014E-01 3.539992E-01
0.000000E+00 6.857143E-01 3.127986E-01 1.727404E-01
0.000000E+00 6.436170E-01 3.975590E-01 1.830867E-01
0.000000E+00 7.063129E-01 9.778858E-02 1.186171E-01
0.000000E+00 5.445321E-01 5.086659E-01 1.639715E-01
0.000000E+00 3.904282E-01 3.609089E-01 3.129168E-01
2.333726E-04 2.798378E-02 4.073588E-01 2.400791E-01
1.957391E-04 9.389232E-03 3.881607E-01 2.064983E-01
0.000000E+00 6.666667E-01 2.868696E-01 1.454721E-01
0.000000E+00 7.060440E-01 9.532851E-02 1.166929E-01
0.000000E+00 6.571429E-01 3.222833E-01 1.795226E-01
1.450260E-05 6.167113E-03 3.421262E-01 1.882677E-01
0.000000E+00 6.666667E-01 2.966127E-01 1.245983E-01
1.009335E+00 1.403486E+00 2.304140E-01 1.506435E-01
0.000000E+00 3.558567E-01 9.675008E-02 2.452057E-01
0.000000E+00 5.337838E-01 5.277442E-01 1.661708E-01
0.000000E+00 6.666667E-01 2.598597E-01 2.296237E-01
4.087609E-01 1.013887E+01 4.361088E-01 1.961515E-01
1.011833E+00 1.900079E+00 4.205728E-01 1.679169E-01
1.254691E-04 1.275166E-02 3.435666E-01 2.164746E-01
0.000000E+00 6.285715E-01 4.008321E-01 1.937592E-01
0.000000E+00 3.776034E-02 9.439030E-02 1.451821E-01
2.129902E-04 2.459270E-02 3.631131E-01 2.195129E-01
0.000000E+00 8.549488E-01 6.189723E-02 9.010004E-02
5.726041E-01 3.116324E+00 5.062983E-01 1.933447E-01
0.000000E+00 7.398081E-01 4.141554E-01 1.436280E-01
0.000000E+00 6.030993E-01 2.671173E-01 2.679920E-01
5.000000E-01 1.995146E+00 8.525597E-02 1.108978E-01
0.000000E+00 7.749831E-01 3.312256E-01 2.809602E-01
0.000000E+00 8.726513E-01 1.668425E-02 4.500145E-02
0.000000E+00 3.366528E-01 1.062832E-01 2.228484E-01
8.534027E+00 1.329559E+02 3.050838E-01 1.620149E-01
0.000000E+00 5.786667E-01 4.206885E-01 1.703679E-01
0.000000E+00 4.443521E-01 4.264459E-01 3.375595E-01
7.449973E-01 3.295041E+00 5.910627E-01 2.035653E-01
1.993134E-04 1.287394E-02 3.639837E-01 2.088972E-01
9.408100E-05 7.857291E-03 3.783522E-01 2.359915E-01
0.000000E+00 4.643049E-01 5.028997E-01 1.933242E-01
5.000000E-01 1.903540E+00 6.928801E-02 1.054912E-01
0.000000E+00 3.347965E-01 1.058068E-01 2.236000E-01
1.011695E+00 1.910221E+00 4.156071E-01 1.734680E-01
0.000000E+00 4.095140E-01 6.209411E-02 1.183376E-01
1.014284E+00 1.908057E+00 5.594196E-01 1.361942E-01
0.000000E+00 5.800712E-01 4.125065E-01 1.705035E-01
0.000000E+00 3.216317E-01 9.665265E-02 2.227522E-01
0.000000E+00 3.904282E-01 3.602023E-01 3.117548E-01
1.016683E+00 1.504361E+00 2.645774E-01 1.772040E-01
0.000000E+00 4.927048E-01 5.123415E-01 1.809021E-01
0.000000E+00 7.159625E-01 2.717516E-01 2.441635E-01
0.000000E+00 6.666667E-01 2.950930E-01 1.243270E-01
2.500000E-01 4.430305E+00 6.718650E-02 9.943242E-02
0.000000E+00 9.390681E-01 9.708510E-03 4.005816E-02
0.000000E+00 4.839338E-01 4.105119E-01 3.347352E-01
0.000000E+00 7.389444E-01 4.853258E-01 2.023986E-01
1.013558E+00 1.886648E+00 5.729619E-01 1.388509E-01
0.000000E+00 1.000000E+00 2.929832E-01 3.063082E-01
0.000000E+00 3.206951E-01 1.271775E-01 2.321943E-01
0.000000E+00 6.849315E-01 3.800936E-01 1.778229E-01
0.000000E+00 4.508469E-01 4.038449E-01 2.928069E-01
1.121146E-04 1.213984E-02 3.303807E-01 2.224736E-01
0.000000E+00 4.926719E-01 5.170493E-01 1.822147E-01
0.000000E+00 9.759036E-01 4.646396E-03 3.806109E-02
0.000000E+00 9.377432E-01 9.447453E-03 3.990727E-02
0.000000E+00 9.330143E-01 2.716502E-02 5.446220E-02
0.000000E+00 5.860140E-01 3.485868E-01 2.843047E-01
1.060994E+00 1.904721E+00 3.717729E-01 1.611468E-01
0.000000E+00 9.761904E-01 4.835264E-03 3.813718E-02
5.000000E-01 1.901501E+00 6.779344E-02 1.048067E-01
7.506241E-01 3.191788E+00 5.553262E-01 1.621583E-01
0.000000E+00 4.862745E-01 4.086170E-01 3.326562E-01
2.500000E-01 4.026991E+00 5.598495E-02 9.662866E-02
0.000000E+00 3.496638E-01 1.754407E-01 2.234968E-01
2.046205E-02 6.493399E-01 3.052323E-01 1.254918E-01
0.000000E+00 3.890481E-01 2.179133E-01 2.374084E-01
2.500000E-01 4.024859E+00 5.466937E-02 9.601226E-02
0.000000E+00 3.465727E-01 1.785168E-01 2.266228E-01
0.000000E+00 7.082495E-01 4.238546E-01 1.532209E-01
1.066933E+00 1.905413E+00 3.481419E-01 1.876951E-01
0.000000E+00 1.000000E+00 2.929887E-01 3.030701E-01
3.670346E-04 2.934056E-02 4.168121E-01 2.183020E-01
0.000000E+00 9.965518E-01 6.117936E-01 1.685850E-01
8.172796E-03 6.666667E-01 2.539119E-01 1.684452E-01
